<svg id="Group_23" data-name="Group 23" xmlns="http://www.w3.org/2000/svg" xmlns:xlink="http://www.w3.org/1999/xlink" width="380.388" height="106.743" viewBox="0 0 380.388 106.743">
  <defs>
    <clipPath id="clip-path">
      <rect id="Rectangle_23" data-name="Rectangle 23" width="380.388" height="106.743" fill="none"/>
    </clipPath>
  </defs>
  <g id="Group_22" data-name="Group 22" clip-path="url(#clip-path)">
    <path id="Path_32" data-name="Path 32" d="M68.055,22.79v-.47c0-4.111-3.682-7.518-8.126-7.518H23.87c-4.444,0-8.126,3.407-8.126,7.518v.47c0,4.112,3.682,7.519,8.126,7.519h32a28.931,28.931,0,0,1,20.7,8.458c.381.352.635.7,1.016,1.057A24.862,24.862,0,0,1,83.926,56.27c0,14.332-12.57,25.962-28.06,25.962H28.06C12.57,82.232,0,70.6,0,56.27H15.871c0,6.226,5.46,11.278,12.189,11.278H55.866c6.729,0,12.316-5.052,12.316-11.278S62.595,44.993,55.866,44.993h-32A24.769,24.769,0,0,1,7.238,38.767,20.979,20.979,0,0,1,4.19,35.242,20.711,20.711,0,0,1,0,22.673V22.2C0,9.986,10.665,0,23.87,0H59.929c13.2,0,24,9.986,24,22.2v.47Z" fill="#161615"/>
    <path id="Path_33" data-name="Path 33" d="M232.964,82.232H215.189l-8.126-14.684L187.637,32.306,168.211,67.548l-8.126,14.684H142.31l8.126-14.684L187.637,0l37.2,67.548Z" transform="translate(-51.403 0)" fill="#161615"/>
    <path id="Path_34" data-name="Path 34" d="M301.114,82.417h.254l-.254.235ZM390.246.185,355.837,41.418l34.281,41H370.057L345.807,53.4,321.556,82.417H301.5l34.154-41L301.241.185H321.3L345.68,29.436,370.057.185h20.189Zm-.254,82.467-.127-.235h.127Z" transform="translate(-108.764 -0.067)" fill="#da001c"/>
    <path id="Path_35" data-name="Path 35" d="M472.286,22.2v7.636h57.135V44.524H472.286V60.03c0,4.112,3.682,7.519,8.126,7.519h64.88V82.233h-64.88c-13.2,0-23.871-9.986-23.871-22.2V22.2c0-12.217,10.666-22.2,23.871-22.2h64.88V14.686h-64.88c-4.444,0-8.126,3.407-8.126,7.518" transform="translate(-164.905 0)" fill="#161615"/>
    <path id="Path_36" data-name="Path 36" d="M19.046,143.119v7.649c0,4.217-3.708,7.648-8.266,7.648s-8.266-3.431-8.266-7.648v-7.649H5.466v7.649a5.135,5.135,0,0,0,5.314,4.917,5.134,5.134,0,0,0,5.314-4.917v-7.649Z" transform="translate(-0.908 -51.695)" fill="#da001c"/>
    <path id="Path_37" data-name="Path 37" d="M56.019,143.141v15.3l-2.953-2.1-10.628-7.583v9.681H39.487V143.185l2.952,2.1,10.628,7.584V143.12Z" transform="translate(-14.263 -51.695)" fill="#da001c"/>
    <rect id="Rectangle_21" data-name="Rectangle 21" width="2.953" height="15.297" transform="translate(48.842 91.424)" fill="#da001c"/>
    <path id="Path_38" data-name="Path 38" d="M108.68,150.768a7.293,7.293,0,0,1-1.937,4.917h1.937v2.732h-8.242c-4.558,0-8.266-3.432-8.266-7.649s3.708-7.649,8.266-7.649,8.266,3.431,8.266,7.649Zm-2.952,0a5.33,5.33,0,1,0-5.314,4.917h.141a5.124,5.124,0,0,0,5.172-4.917" transform="translate(-33.293 -51.695)" fill="#da001c"/>
    <path id="Path_39" data-name="Path 39" d="M145.677,143.119v7.649c0,4.217-3.708,7.648-8.266,7.648s-8.266-3.431-8.266-7.648v-7.649H132.1v7.649a5.33,5.33,0,0,0,10.628,0v-7.649Z" transform="translate(-46.648 -51.695)" fill="#da001c"/>
    <path id="Path_40" data-name="Path 40" d="M169.083,147.249v1.421h10.628V151.4H169.083v2.885a1.468,1.468,0,0,0,1.511,1.4h12.069v2.731H170.595a4.3,4.3,0,0,1-4.44-4.13v-7.037a4.3,4.3,0,0,1,4.44-4.13h12.069v2.732H170.595a1.468,1.468,0,0,0-1.511,1.4" transform="translate(-60.016 -51.695)" fill="#da001c"/>
    <path id="Path_41" data-name="Path 41" d="M245.353,155.117l-1.062,3.3-2.173-2.8-3.283-4.174-3.259,4.174L233.4,158.4l-1.062-3.278-3.85-12h3.07l2.976,9.222,2.5-3.212.472-.612,1.347-1.7,1.346,1.7.473.612,2.5,3.212,2.975-9.222h3.071Z" transform="translate(-82.532 -51.695)" fill="#da001c"/>
    <rect id="Rectangle_22" data-name="Rectangle 22" width="2.953" height="15.297" transform="translate(173.781 91.424)" fill="#da001c"/>
    <path id="Path_42" data-name="Path 42" d="M304.29,143.141v15.3l-2.953-2.1-10.628-7.583v9.681h-2.952V143.185l2.952,2.1,10.628,7.584V143.12Z" transform="translate(-103.939 -51.695)" fill="#da001c"/>
    <path id="Path_43" data-name="Path 43" d="M341.239,143.154v2.731h-6.778v12.566h-2.953V145.885H324.73v-2.731Z" transform="translate(-117.294 -51.708)" fill="#da001c"/>
    <path id="Path_44" data-name="Path 44" d="M364.667,147.249v1.421H375.3V151.4H364.667v2.885a1.468,1.468,0,0,0,1.511,1.4h12.069v2.731H366.179a4.3,4.3,0,0,1-4.44-4.13v-7.037a4.3,4.3,0,0,1,4.44-4.13h12.069v2.732H366.179a1.468,1.468,0,0,0-1.511,1.4" transform="translate(-130.662 -51.695)" fill="#da001c"/>
    <path id="Path_45" data-name="Path 45" d="M412.005,155.72l1.511,2.731h-3.307L408.7,155.72l-1.582-2.863-.072-.131a2.981,2.981,0,0,0-2.5-1.311H401.59v7.037h-2.953v-15.3h10.439a4.612,4.612,0,0,1,3.141,1.2,4.031,4.031,0,0,1,1.3,2.928,4.3,4.3,0,0,1-3.873,4.086Zm-2.929-7.037a1.468,1.468,0,0,0,.614-.131,1.347,1.347,0,0,0,.449-2.273,1.549,1.549,0,0,0-1.063-.394H401.59V148.7Z" transform="translate(-143.989 -51.708)" fill="#da001c"/>
    <path id="Path_46" data-name="Path 46" d="M475.323,155.117l-1.063,3.3-2.173-2.8-3.283-4.174-3.259,4.174-2.173,2.776-1.063-3.278-3.849-12h3.07l2.975,9.222,2.5-3.212.473-.612,1.346-1.7,1.346,1.7.473.612,2.5,3.212,2.976-9.222H479.2Z" transform="translate(-165.598 -51.695)" fill="#da001c"/>
    <path id="Path_47" data-name="Path 47" d="M503.353,147.249v1.421h10.628V151.4H503.353v2.885a1.468,1.468,0,0,0,1.511,1.4h12.069v2.731H504.865a4.3,4.3,0,0,1-4.44-4.13v-7.037a4.3,4.3,0,0,1,4.44-4.13h12.069v2.732H504.865a1.468,1.468,0,0,0-1.511,1.4" transform="translate(-180.756 -51.695)" fill="#da001c"/>
    <path id="Path_48" data-name="Path 48" d="M552.781,158.417h-3.306l-1.511-2.732-3.614-6.556-3.614,6.556-1.511,2.732h-3.306l1.511-2.732,6.92-12.566,6.92,12.566Z" transform="translate(-193.576 -51.695)" fill="#da001c"/>
    <path id="Path_49" data-name="Path 49" d="M585.26,155.72l1.511,2.731h-3.307l-1.511-2.731-1.582-2.863-.072-.131a2.982,2.982,0,0,0-2.5-1.311h-2.952v7.037h-2.953v-15.3h10.439a4.612,4.612,0,0,1,3.141,1.2,4.031,4.031,0,0,1,1.3,2.928,4.3,4.3,0,0,1-3.873,4.086Zm-2.929-7.037a1.468,1.468,0,0,0,.614-.131,1.347,1.347,0,0,0,.449-2.273,1.549,1.549,0,0,0-1.063-.394h-7.487V148.7Z" transform="translate(-206.57 -51.708)" fill="#da001c"/>
  </g>
</svg>
