<svg xmlns="http://www.w3.org/2000/svg" xmlns:xlink="http://www.w3.org/1999/xlink" width="49.753" height="49.092" viewBox="0 0 49.753 49.092">
  <defs>
    <clipPath id="clip-path">
      <rect id="Rectangle_78" data-name="Rectangle 78" width="49.753" height="49.092" fill="#ca433f"/>
    </clipPath>
  </defs>
  <g id="Group_110" data-name="Group 110" transform="translate(0 0)">
    <g id="Group_109" data-name="Group 109" transform="translate(0 0)" clip-path="url(#clip-path)">
      <path id="Path_142" data-name="Path 142" d="M5.166,48.585a.409.409,0,0,1-.386-.542L9.24,35.15a.421.421,0,0,1,.1-.156L39.3,5.031a.408.408,0,0,1,.578,0l8.428,8.433a.409.409,0,0,1,0,.578L18.348,44a.408.408,0,0,1-.155.1L5.3,48.562a.4.4,0,0,1-.134.023M9.982,35.506,5.828,47.515l12.01-4.16,29.6-29.6L39.59,5.9Z" transform="translate(-1.768 -1.825)" fill="#ca433f"/>
      <path id="Path_143" data-name="Path 143" d="M5.166,71.753a.409.409,0,0,1-.386-.543l1.271-3.668a.407.407,0,0,1,.605-.211,8.316,8.316,0,0,1,1.4,1.121,8.253,8.253,0,0,1,1.126,1.4.408.408,0,0,1-.211.6L5.3,71.73a.408.408,0,0,1-.134.023m1.481-3.437-.82,2.367,2.367-.821a7.728,7.728,0,0,0-.718-.831,7.564,7.564,0,0,0-.829-.714" transform="translate(-1.768 -24.993)" fill="#ca433f"/>
      <path id="Path_144" data-name="Path 144" d="M20.778,61.944a.408.408,0,0,1-.4-.308L19.788,59.3l-1.782-.131a.409.409,0,0,1-.373-.342L17.219,56.3H15.147a.409.409,0,0,1-.408-.409V53.809L12.2,53.4a.408.408,0,1,1,.129-.806l2.883.463a.409.409,0,0,1,.344.4v2.017h2.01a.409.409,0,0,1,.4.343l.419,2.56,1.753.129a.409.409,0,0,1,.366.307l.667,2.618a.408.408,0,0,1-.295.5.4.4,0,0,1-.1.013" transform="translate(-4.404 -19.539)" fill="#ca433f"/>
      <path id="Path_145" data-name="Path 145" d="M16.344,36.958a.409.409,0,0,1-.289-.7L44.93,7.381a.409.409,0,1,1,.578.578L16.632,36.838a.407.407,0,0,1-.288.12" transform="translate(-5.921 -2.698)" fill="#ca433f"/>
      <path id="Path_146" data-name="Path 146" d="M20.221,41.135a.409.409,0,0,1-.29-.7L48.822,11.29a.409.409,0,0,1,.581.576L20.511,41.014a.408.408,0,0,1-.29.121" transform="translate(-7.361 -4.15)" fill="#ca433f"/>
      <path id="Path_147" data-name="Path 147" d="M23.892,45.751a.409.409,0,0,1-.289-.7L52.959,15.7a.409.409,0,0,1,.578.578L24.181,45.631a.409.409,0,0,1-.289.119" transform="translate(-8.725 -5.788)" fill="#ca433f"/>
      <path id="Path_148" data-name="Path 148" d="M68.37,12.337a.408.408,0,0,1-.289-.119L59.652,3.785a.408.408,0,0,1,0-.578l2.185-2.186a3.517,3.517,0,0,1,4.954,0l4.058,4.055a3.51,3.51,0,0,1,0,4.955l-2.19,2.186a.406.406,0,0,1-.288.119M60.519,3.5l7.851,7.855,1.9-1.9a2.69,2.69,0,0,0,0-3.8L66.213,1.6a2.7,2.7,0,0,0-3.8,0Z" transform="translate(-22.119 -0.001)" fill="#ca433f"/>
      <path id="Path_149" data-name="Path 149" d="M38.076,74.918H33.843a.409.409,0,1,1,0-.818h4.233a.409.409,0,0,1,0,.818m-7.641,0H.408a.409.409,0,0,1,0-.818H30.434a.409.409,0,0,1,0,.818" transform="translate(0 -27.531)" fill="#ca433f"/>
      <path id="Path_150" data-name="Path 150" d="M49.888,75.615A2.114,2.114,0,1,1,52,73.5a2.115,2.115,0,0,1-2.115,2.114m0-3.411a1.3,1.3,0,1,0,1.3,1.3,1.3,1.3,0,0,0-1.3-1.3" transform="translate(-17.751 -26.523)" fill="#ca433f"/>
    </g>
  </g>
</svg>
